…
homicide_summary |> 
  arrange(desc(total_homicides))
```

    ## # A tibble: 50 × 3
    ##    city_state       total_homicides unsolved_homicides
    ##    <chr>                      <int>              <int>
    ##  1 Chicago, IL                 5535               4073
    ##  2 Philadelphia, PA            3037               1360
    ##  3 Houston, TX                 2942               1493
    ##  4 Baltimore, MD               2827               1825
    ##  5 Detroit, MI                 2519               1482
    ##  6 Los Angeles, CA             2257               1106
    ##  7 St. Louis, MO               1677                905
    ##  8 Dallas, TX                  1567                754
    ##  9 Memphis, TN                 1514                483
    ## 10 New Orleans, LA             1434                930
    ## # ℹ 40 more rows

``` r
homicide_summary |> 
  arrange(desc(unsolved_homicides))
```

    ## # A tibble: 50 × 3
    ##    city_state       total_homicides unsolved_homicides
    ##    <chr>                      <int>              <int>
    ##  1 Chicago, IL                 5535               4073
    ##  2 Baltimore, MD               2827               1825
    ##  3 Houston, TX                 2942               1493
    ##  4 Detroit, MI                 2519               1482
    ##  5 Philadelphia, PA            3037               1360
    ##  6 Los Angeles, CA             2257               1106
    ##  7 New Orleans, LA             1434                930
    ##  8 St. Louis, MO               1677                905
    ##  9 Dallas, TX                  1567                754
    ## 10 Jacksonville, FL            1168                597
    ## # ℹ 40 more rows
…
